%YAML 1.1
%TAG !u! tag:unity3d.com,2011:
--- !u!114 &11400000
MonoBehaviour:
  m_ObjectHideFlags: 0
  m_CorrespondingSourceObject: {fileID: 0}
  m_PrefabInstance: {fileID: 0}
  m_PrefabAsset: {fileID: 0}
  m_GameObject: {fileID: 0}
  m_Enabled: 1
  m_EditorHideFlags: 0
  m_Script: {fileID: 11500000, guid: cdbd9329e8e2d7f48b45faf4086350ce, type: 3}
  m_Name: rod_baitcasting_firestarter
  m_EditorClassIdentifier: 
  id: firestarter
  itemName: Hot Rod
  type: 3
  level: 1
  rodSprite: {fileID: 21300000, guid: 0d435a405af483344a63ed550608c51d, type: 3}
  rodModel: {fileID: -927199367670048503, guid: 1ed533c1516830e4999a17e8654bfe6c,
    type: 3}
