%YAML 1.1
%TAG !u! tag:unity3d.com,2011:
--- !u!687078895 &4343727234628468602
SpriteAtlas:
  m_ObjectHideFlags: 0
  m_CorrespondingSourceObject: {fileID: 0}
  m_PrefabInstance: {fileID: 0}
  m_PrefabAsset: {fileID: 0}
  m_Name: MenuSpriteAtlas
  m_EditorData:
    serializedVersion: 2
    textureSettings:
      serializedVersion: 2
      anisoLevel: 1
      compressionQuality: 50
      maxTextureSize: 2048
      textureCompression: 0
      filterMode: 1
      generateMipMaps: 0
      readable: 0
      crunchedCompression: 0
      sRGB: 1
    platformSettings: []
    packingSettings:
      serializedVersion: 2
      padding: 4
      blockOffset: 1
      allowAlphaSplitting: 0
      enableRotation: 0
      enableTightPacking: 0
    variantMultiplier: 1
    packables:
    - {fileID: 2800000, guid: e473ed9ad6afdc54e8bb148859015e18, type: 3}
    - {fileID: 2800000, guid: 4390d7d367deaa043ae3ae9fd90529d0, type: 3}
    - {fileID: 2800000, guid: 6b9e461891ad69c4b8f521497929dbf0, type: 3}
    - {fileID: 2800000, guid: f680ea9fe02ce2e4da127efc3e00ad71, type: 3}
    - {fileID: 2800000, guid: 2eb2b79271fa2984881d559f5ec66d7a, type: 3}
    - {fileID: 2800000, guid: 80f08641352eab44fbe4859ba055883b, type: 3}
    - {fileID: 2800000, guid: a62ddea93652fd042ac940f8422dff70, type: 3}
    - {fileID: 2800000, guid: 3630d96a5055e0a45af8e70e1df92399, type: 3}
    - {fileID: 2800000, guid: e6e18562574fbcc4ea8ac5abe3683d27, type: 3}
    - {fileID: 2800000, guid: fea89e052da678849a047bd6d8c3587c, type: 3}
    - {fileID: 2800000, guid: cf815ebbd97eae74fa1317dd2c2f6c45, type: 3}
    - {fileID: 2800000, guid: 795575913fcbec348a896fcb8a0514c1, type: 3}
    - {fileID: 2800000, guid: 56f85e832fe1bb14faa529bac8571d9d, type: 3}
    - {fileID: 2800000, guid: 7cb2c4cf06161014c87cbd16b0ed9447, type: 3}
    - {fileID: 2800000, guid: 4308d0bebe6e26044a2c88737f8d273a, type: 3}
    - {fileID: 2800000, guid: 78fc6f5966c04b6409c791dfc811d73d, type: 3}
    - {fileID: 2800000, guid: 717dc7e62f95846419974bb49abc9fe9, type: 3}
    - {fileID: 2800000, guid: 527bff1319a9adc48bc6810343d7edd3, type: 3}
    - {fileID: 2800000, guid: 58bb64df95ac12b4ca70a73cd1ce1fd5, type: 3}
    - {fileID: 2800000, guid: ff605c9812b6db4469fb770c14b332e5, type: 3}
    - {fileID: 2800000, guid: a50481ef7ccfceb47a536e231ee1adea, type: 3}
    - {fileID: 2800000, guid: 6f7353bfde71e8c4fb54697012a6e13d, type: 3}
    - {fileID: 2800000, guid: 4bc825096974c4947abdd15b6073a269, type: 3}
    - {fileID: 2800000, guid: ac07c40a018b4334aa3a924b8143adf3, type: 3}
    - {fileID: 2800000, guid: 6d0b1066fb5c33b488b01ade92c8009a, type: 3}
    - {fileID: 2800000, guid: 885febab46e598045b3703b817d7d9e6, type: 3}
    - {fileID: 2800000, guid: 08468c6e01aea1543a4db3e7f3d48658, type: 3}
    - {fileID: 2800000, guid: 4b9aee5209333844ea9404016c5a73a8, type: 3}
    - {fileID: 2800000, guid: 734104ec3baad4d4d8e40221ef4e3863, type: 3}
    - {fileID: 2800000, guid: 8f6174f8a2a2afb46a1f5f70ca03ac97, type: 3}
    - {fileID: 2800000, guid: a4028d8853dc3d247b2f339788ad93d0, type: 3}
    - {fileID: 2800000, guid: e6e9765aaf4c41a4caa82ad09c02b3e9, type: 3}
    - {fileID: 2800000, guid: f08fa857812c5cb4985c8e8cfa8aabe3, type: 3}
    - {fileID: 2800000, guid: f69493eff96a1bc45a526f844c5cbdb4, type: 3}
    - {fileID: 2800000, guid: ff00fd6591b5bd64c8c20a5add139a93, type: 3}
    - {fileID: 2800000, guid: 3a8fa236033c04542b93f45fd61ea709, type: 3}
    - {fileID: 2800000, guid: 88df9322660bbfa408dfd2071adcc8b3, type: 3}
    - {fileID: 2800000, guid: 747fb24c9e6e6f24da61fc522d507841, type: 3}
    - {fileID: 2800000, guid: bf4acc13964dbcd42b733509832c7585, type: 3}
    - {fileID: 2800000, guid: 44824a1ad986d2448acf72c9aadb008c, type: 3}
    - {fileID: 2800000, guid: dfb6873c19fef3f42925d790b0cdbccb, type: 3}
    - {fileID: 2800000, guid: 995ab33fc73d5ab4f9463e19e75a4eab, type: 3}
    - {fileID: 2800000, guid: 632b8672191891242ab1279b73618bb3, type: 3}
    - {fileID: 2800000, guid: 5a700d3657fce0341b232ac9dff1f374, type: 3}
    - {fileID: 2800000, guid: 2896449d1e16e6140b2a659a8b4b72ee, type: 3}
    totalSpriteSurfaceArea: 1662840
    bindAsDefault: 1
  m_MasterAtlas: {fileID: 0}
  m_PackedSprites:
  - {fileID: 21300000, guid: 80f08641352eab44fbe4859ba055883b, type: 3}
  - {fileID: 21300000, guid: 795575913fcbec348a896fcb8a0514c1, type: 3}
  - {fileID: 21300000, guid: 88df9322660bbfa408dfd2071adcc8b3, type: 3}
  - {fileID: 21300000, guid: 4b9aee5209333844ea9404016c5a73a8, type: 3}
  - {fileID: 21300000, guid: e6e18562574fbcc4ea8ac5abe3683d27, type: 3}
  - {fileID: 21300000, guid: 632b8672191891242ab1279b73618bb3, type: 3}
  - {fileID: 21300000, guid: 2eb2b79271fa2984881d559f5ec66d7a, type: 3}
  - {fileID: 21300000, guid: bf4acc13964dbcd42b733509832c7585, type: 3}
  - {fileID: 21300000, guid: 527bff1319a9adc48bc6810343d7edd3, type: 3}
  - {fileID: 21300000, guid: 56f85e832fe1bb14faa529bac8571d9d, type: 3}
  - {fileID: 21300000, guid: 4390d7d367deaa043ae3ae9fd90529d0, type: 3}
  - {fileID: 21300000, guid: fea89e052da678849a047bd6d8c3587c, type: 3}
  - {fileID: 21300000, guid: ff00fd6591b5bd64c8c20a5add139a93, type: 3}
  - {fileID: 21300000, guid: 3a8fa236033c04542b93f45fd61ea709, type: 3}
  - {fileID: 21300000, guid: 5a700d3657fce0341b232ac9dff1f374, type: 3}
  - {fileID: 21300000, guid: 6d0b1066fb5c33b488b01ade92c8009a, type: 3}
  - {fileID: 21300000, guid: 717dc7e62f95846419974bb49abc9fe9, type: 3}
  - {fileID: 21300000, guid: f08fa857812c5cb4985c8e8cfa8aabe3, type: 3}
  - {fileID: 21300000, guid: 6b9e461891ad69c4b8f521497929dbf0, type: 3}
  - {fileID: 21300000, guid: a4028d8853dc3d247b2f339788ad93d0, type: 3}
  - {fileID: 21300000, guid: ff605c9812b6db4469fb770c14b332e5, type: 3}
  - {fileID: 21300000, guid: 8f6174f8a2a2afb46a1f5f70ca03ac97, type: 3}
  - {fileID: 21300000, guid: 4bc825096974c4947abdd15b6073a269, type: 3}
  - {fileID: 21300000, guid: 78fc6f5966c04b6409c791dfc811d73d, type: 3}
  - {fileID: 21300000, guid: a62ddea93652fd042ac940f8422dff70, type: 3}
  - {fileID: 21300000, guid: ac07c40a018b4334aa3a924b8143adf3, type: 3}
  - {fileID: 21300000, guid: 44824a1ad986d2448acf72c9aadb008c, type: 3}
  - {fileID: 21300000, guid: e6e9765aaf4c41a4caa82ad09c02b3e9, type: 3}
  - {fileID: 21300000, guid: 3630d96a5055e0a45af8e70e1df92399, type: 3}
  - {fileID: 21300000, guid: e473ed9ad6afdc54e8bb148859015e18, type: 3}
  - {fileID: 21300000, guid: 885febab46e598045b3703b817d7d9e6, type: 3}
  - {fileID: 21300000, guid: cf815ebbd97eae74fa1317dd2c2f6c45, type: 3}
  - {fileID: 21300000, guid: dfb6873c19fef3f42925d790b0cdbccb, type: 3}
  - {fileID: 21300000, guid: 747fb24c9e6e6f24da61fc522d507841, type: 3}
  - {fileID: 21300000, guid: 734104ec3baad4d4d8e40221ef4e3863, type: 3}
  - {fileID: 21300000, guid: 2896449d1e16e6140b2a659a8b4b72ee, type: 3}
  - {fileID: 21300000, guid: 08468c6e01aea1543a4db3e7f3d48658, type: 3}
  - {fileID: 21300000, guid: 4308d0bebe6e26044a2c88737f8d273a, type: 3}
  - {fileID: 21300000, guid: 995ab33fc73d5ab4f9463e19e75a4eab, type: 3}
  - {fileID: 21300000, guid: f680ea9fe02ce2e4da127efc3e00ad71, type: 3}
  - {fileID: 21300000, guid: 6f7353bfde71e8c4fb54697012a6e13d, type: 3}
  - {fileID: 21300000, guid: 7cb2c4cf06161014c87cbd16b0ed9447, type: 3}
  - {fileID: 21300000, guid: 58bb64df95ac12b4ca70a73cd1ce1fd5, type: 3}
  - {fileID: 21300000, guid: a50481ef7ccfceb47a536e231ee1adea, type: 3}
  - {fileID: 21300000, guid: f69493eff96a1bc45a526f844c5cbdb4, type: 3}
  m_PackedSpriteNamesToIndex:
  - BG_top_bar
  - Button1
  - star_empty
  - Pagination_button_active
  - Blue_card
  - Yellow_bar
  - BG
  - Statictic_bar_y
  - hard_currency
  - Button_active1
  - Background
  - blue_star
  - Selected_BG_2
  - soft_currency
  - Yellow_bar_BG
  - Orange_bar
  - Green_bar
  - rod_icon
  - Background_stats
  - Purple_card
  - LV_blue
  - Purple_bar_BG
  - Max_lv_BG
  - Gradient
  - Blue_bar
  - Options_icon
  - Statistic_bar
  - reel_icon
  - Blue_bar_BG
  - arrow_upgrade
  - padlock_icon
  - BT_add
  - Statistic_bar_BG
  - Star_icon
  - Purple_bar
  - Yellow_card
  - Pagination_button
  - Frame_for_item
  - TopPlus
  - bar_bg_popup
  - LV_yellow
  - distinction
  - Lock_BG
  - LV_purple
  - selected_BG
  m_Tag: MenuSpriteAtlas
  m_IsVariant: 0
